{
    "nextId": 4,
    "items": [
        {
            "id": 1,
            "login": "admin",
            "fullname": "Admin Admin",
            "role": 1,
            "registeredAt": "2018-10-01",
            "avaUrl": "https://en.pimg.jp/003/754/060/1/3754060.jpg",
            "isEnabled": "True",
            "bio": "Bla bla bla bla bla bla"
        },
        {
            "id": 2,
            "login": "kidA",
            "fullname": "Thom Yorke",
            "role": 0,
            "registeredAt": "2020-05-14",
            "avaUrl": "https://pbs.twimg.com/media/EO8FFOpX0AAyt1W.jpg",
            "isEnabled": "True",
            "bio": "Thomas Edward Yorke (born 7 October 1968) is an English musician and the main vocalist and songwriter of the rock band Radiohead. A multi-instrumentalist, he mainly plays guitar and keyboards, and is known for his falsetto."

           
        },
        {
            "id": 3,
            "login": "msomeguy12",
            "fullname": "John Smith",
            "role": 0,
            "registeredAt": "2019-10-27",
            "avaUrl": "https://cdn.jpegmini.com/user/images/slider_puffin_before_mobile.jpg",
            "isEnabled": "True",
            "bio": "John Smith (baptized. 6 January 1580 – 21 June 1631) was an English soldier, explorer, colonial governor, Admiral of New England, and author"
        }
    ]
}