{
    "nextId": 244,
    "items": [
        {
            "id": 1,
            "path": "/home/misha/webprogbase/labs/lab2/controllers/../data/media/file1.jpg"
        },
        {
            "id": 2,
            "path": "/home/misha/webprogbase/labs/lab2/controllers/../data/media/file2.jpg"
        },
        {
            "id": 3,
            "path": "/home/misha/webprogbase/labs/lab2/controllers/../data/media/file3.jpg"
        },
        {
            "id": 4,
            "path": "/home/misha/webprogbase/labs/lab2/controllers/../data/media/file4.jpg"
        },
        {
            "id": 5,
            "path": "/home/misha/webprogbase/labs/lab2/controllers/../data/media/file5.jpg"
        },
        {
            "id": 6,
            "path": "/home/misha/webprogbase/labs/lab2/controllers/../data/media/file6.jpg"
        },
        {
            "id": 7,
            "path": "/home/misha/webprogbase/labs/lab2/controllers/../data/media/file7.jpg"
        },
        {
            "id": 8,
            "path": "/home/misha/webprogbase/labs/lab2/controllers/../data/media/file8.jpg"
        },
        {
            "id": 9,
            "path": "/home/misha/webprogbase/labs/lab5/repositories/../data/media/file9.false"
        },
        {
            "id": 10,
            "path": "/home/misha/webprogbase/labs/lab5/repositories/../data/media/file10.false"
        },
        {
            "id": 11,
            "path": "/home/misha/webprogbase/labs/lab5/repositories/../data/media/file11.false"
        },
        {
            "id": 12,
            "path": "/home/misha/webprogbase/labs/lab5/repositories/../data/media/file12.false"
        },
        {
            "id": 13,
            "path": "/home/misha/webprogbase/labs/lab5/repositories/../data/media/file13.false"
        },
        {
            "id": 14,
            "path": "/home/misha/webprogbase/labs/lab5/repositories/../data/media/file14.false"
        },
        {
            "id": 15,
            "path": "/home/misha/webprogbase/labs/lab5/repositories/../data/media/file15.false"
        },
        {
            "id": 16,
            "path": "/home/misha/webprogbase/labs/lab5/repositories/../data/media/file16.false"
        },
        {
            "id": 17,
            "path": "/home/misha/webprogbase/labs/lab5/repositories/../data/media/file17.false"
        },
        {
            "id": 18,
            "path": "/home/misha/webprogbase/labs/lab5/repositories/../data/media/file18.false"
        },
        {
            "id": 19,
            "path": "/home/misha/webprogbase/labs/lab5/repositories/../data/media/file19.false"
        },
        {
            "id": 20,
            "path": "/home/misha/webprogbase/labs/lab5/repositories/../data/media/file20.false"
        },
        {
            "id": 21,
            "path": "/home/misha/webprogbase/labs/lab5/repositories/../data/media/file21.false"
        },
        {
            "id": 22,
            "path": "/home/misha/webprogbase/labs/lab5/repositories/../data/media/file22.false"
        },
        {
            "id": 23,
            "path": "/home/misha/webprogbase/labs/lab5/repositories/../data/media/file23.false"
        },
        {
            "id": 24,
            "path": "/home/misha/webprogbase/labs/lab5/repositories/../data/media/file24.false"
        },
        {
            "id": 25,
            "path": "/home/misha/webprogbase/labs/lab5/repositories/../data/media/file25.false"
        },
        {
            "id": 26,
            "path": "/home/misha/webprogbase/labs/lab5/repositories/../data/media/file26.false"
        },
        {
            "id": 27,
            "path": "/home/misha/webprogbase/labs/lab5/repositories/../data/media/file27.false"
        },
        {
            "id": 28,
            "path": "/home/misha/webprogbase/labs/lab5/repositories/../data/media/file28.false"
        },
        {
            "id": 29,
            "path": "/home/misha/webprogbase/labs/lab5/repositories/../data/media/file29.false"
        },
        {
            "id": 30,
            "path": "/home/misha/webprogbase/labs/lab5/repositories/../data/media/file30.false"
        },
        {
            "id": 31,
            "path": "/home/misha/webprogbase/labs/lab5/repositories/../data/media/file31.false"
        },
        {
            "id": 32,
            "path": "/home/misha/webprogbase/labs/lab5/repositories/../data/media/file32.false"
        },
        {
            "id": 33,
            "path": "/home/misha/webprogbase/labs/lab5/repositories/../data/media/file33.false"
        },
        {
            "id": 34,
            "path": "/home/misha/webprogbase/labs/lab5/repositories/../data/media/file34.false"
        },
        {
            "id": 35,
            "path": "/home/misha/webprogbase/labs/lab5/repositories/../data/media/file35.false"
        },
        {
            "id": 36,
            "path": "/home/misha/webprogbase/labs/lab5/repositories/../data/media/file36.false"
        },
        {
            "id": 37,
            "path": "/home/misha/webprogbase/labs/lab5/repositories/../data/media/file37.false"
        },
        {
            "id": 38,
            "path": "/home/misha/webprogbase/labs/lab5/repositories/../data/media/file38.false"
        },
        {
            "id": 39,
            "path": "/home/misha/webprogbase/labs/lab5/repositories/../data/media/file39.false"
        },
        {
            "id": 40,
            "path": "/home/misha/webprogbase/labs/lab5/repositories/../data/media/file40.false"
        },
        {
            "id": 41,
            "path": "/home/misha/webprogbase/labs/lab5/repositories/../data/media/file41.false"
        },
        {
            "id": 42,
            "path": "/home/misha/webprogbase/labs/lab5/repositories/../data/media/file42.false"
        },
        {
            "id": 43,
            "path": "/home/misha/webprogbase/labs/lab5/repositories/../data/media/file43.png"
        },
        {
            "id": 44,
            "path": "/home/misha/webprogbase/labs/lab5/repositories/../data/media/file44.png"
        },
        {
            "id": 45,
            "path": "/home/misha/webprogbase/labs/lab5/repositories/../data/media/file45.png"
        },
        {
            "id": 46,
            "path": "/home/misha/webprogbase/labs/lab5/repositories/../data/media/file46.png"
        },
        {
            "id": 47,
            "path": "/home/misha/webprogbase/labs/lab5/repositories/../data/media/file47.png"
        },
        {
            "id": 48,
            "path": "/home/misha/webprogbase/labs/lab5/repositories/../data/media/file48.png"
        },
        {
            "id": 49,
            "path": "/home/misha/webprogbase/labs/lab5/repositories/../data/media/file49.png"
        },
        {
            "id": 50,
            "path": "/home/misha/webprogbase/labs/lab5/repositories/../data/media/file50.png"
        },
        {
            "id": 51,
            "path": "/home/misha/webprogbase/labs/lab5/repositories/../data/media/file51.png"
        },
        {
            "id": 52,
            "path": "/home/misha/webprogbase/labs/lab5/repositories/../data/media/file52.png"
        },
        {
            "id": 53,
            "path": "/home/misha/webprogbase/labs/lab5/repositories/../data/media/file53.png"
        },
        {
            "id": 54,
            "path": "/home/misha/webprogbase/labs/lab5/repositories/../data/media/file54.jpeg"
        },
        {
            "id": 55,
            "path": "/home/misha/webprogbase/labs/lab5/repositories/../data/media/file55.png"
        },
        {
            "id": 56,
            "path": "/home/misha/webprogbase/labs/lab5/repositories/../data/media/file56.png"
        },
        {
            "id": 57,
            "path": "/home/misha/webprogbase/labs/lab5/repositories/../data/media/file57.jpeg"
        },
        {
            "id": 122,
            "path": "/home/misha/webprogbase/labs/lab5/repositories/../data/media/file122.png"
        },
        {
            "id": 123,
            "path": "/home/misha/webprogbase/labs/lab5/repositories/../data/media/file123.png"
        },
        {
            "id": 124,
            "path": "/home/misha/webprogbase/labs/lab5/repositories/../data/media/file124.png"
        },
        {
            "id": 125,
            "path": "/home/misha/webprogbase/labs/lab5/repositories/../data/media/file125.png"
        },
        {
            "id": 126,
            "path": "/home/misha/webprogbase/labs/lab5/repositories/../data/media/file126.png"
        },
        {
            "id": 127,
            "path": "/home/misha/webprogbase/labs/lab5/repositories/../data/media/file127.png"
        },
        {
            "id": 128,
            "path": "/home/misha/webprogbase/labs/lab5/repositories/../data/media/file128.png"
        },
        {
            "id": 129,
            "path": "/home/misha/webprogbase/labs/lab5/repositories/../data/media/file129.png"
        },
        {
            "id": 130,
            "path": "/home/misha/webprogbase/labs/lab5/repositories/../data/media/file130.png"
        },
        {
            "id": 131,
            "path": "/home/misha/webprogbase/labs/lab5/repositories/../data/media/file131.png"
        },
        {
            "id": 132,
            "path": "/home/misha/webprogbase/labs/lab5/repositories/../data/media/file132.png"
        },
        {
            "id": 133,
            "path": "/home/misha/webprogbase/labs/lab5/repositories/../data/media/file133.png"
        },
        {
            "id": 134,
            "path": "/home/misha/webprogbase/labs/lab5/repositories/../data/media/file134.png"
        },
        {
            "id": 135,
            "path": "/home/misha/webprogbase/labs/lab5/repositories/../data/media/file135.png"
        },
        {
            "id": 136,
            "path": "/home/misha/webprogbase/labs/lab5/repositories/../data/media/file136.png"
        },
        {
            "id": 137,
            "path": "/home/misha/webprogbase/labs/lab5/repositories/../data/media/file137.png"
        },
        {
            "id": 138,
            "path": "/home/misha/webprogbase/labs/lab5/repositories/../data/media/file138.png"
        },
        {
            "id": 139,
            "path": "/home/misha/webprogbase/labs/lab5/repositories/../data/media/file139.png"
        },
        {
            "id": 140,
            "path": "/home/misha/webprogbase/labs/lab5/repositories/../data/media/file140.png"
        },
        {
            "id": 141,
            "path": "/home/misha/webprogbase/labs/lab5/repositories/../data/media/file141.png"
        },
        {
            "id": 142,
            "path": "/home/misha/webprogbase/labs/lab5/repositories/../data/media/file142.png"
        },
        {
            "id": 143,
            "path": "/home/misha/webprogbase/labs/lab5/repositories/../data/media/file143.png"
        },
        {
            "id": 144,
            "path": "/home/misha/webprogbase/labs/lab5/repositories/../data/media/file144.png"
        },
        {
            "id": 145,
            "path": "/home/misha/webprogbase/labs/lab5/repositories/../data/media/file145.png"
        },
        {
            "id": 147,
            "path": "/home/misha/webprogbase/labs/lab5/repositories/../data/media/file147.png"
        },
        {
            "id": 148,
            "path": "/home/misha/webprogbase/labs/lab5/repositories/../data/media/file148.jpeg"
        },
        {
            "id": 150,
            "path": "/home/misha/webprogbase/labs/lab5/repositories/../data/media/file150.png"
        },
        {
            "id": 151,
            "path": "/home/misha/webprogbase/labs/lab5/repositories/../data/media/file151.jpeg"
        },
        {
            "id": 152,
            "path": "/home/misha/webprogbase/labs/lab5/repositories/../data/media/file152.png"
        },
        {
            "id": 154,
            "path": "/home/misha/webprogbase/labs/lab5/repositories/../data/media/file154.png"
        },
        {
            "id": 155,
            "path": "/home/misha/webprogbase/labs/lab5/repositories/../data/media/file155.png"
        },
        {
            "id": 156,
            "path": "/home/misha/webprogbase/labs/lab5/repositories/../data/media/file156.jpeg"
        },
        {
            "id": 157,
            "path": "/home/misha/webprogbase/labs/lab5/repositories/../data/media/file157.png"
        },
        {
            "id": 158,
            "path": "/home/misha/webprogbase/labs/lab5/repositories/../data/media/file158.png"
        },
        {
            "id": 159,
            "path": "/home/misha/webprogbase/labs/lab5/repositories/../data/media/file159.jpeg"
        },
        {
            "id": 160,
            "path": "/home/misha/webprogbase/labs/lab5/repositories/../data/media/file160.png"
        },
        {
            "id": 161,
            "path": "/home/misha/webprogbase/labs/lab5/repositories/../data/media/file161.png"
        },
        {
            "id": 162,
            "path": "/home/misha/webprogbase/labs/lab5/repositories/../data/media/file162.jpeg"
        },
        {
            "id": 163,
            "path": "/home/misha/webprogbase/labs/lab5/repositories/../data/media/file163.jpeg"
        },
        {
            "id": 164,
            "path": "/home/misha/webprogbase/labs/lab5/repositories/../data/media/file164.jpeg"
        },
        {
            "id": 165,
            "path": "/home/misha/webprogbase/labs/lab5/repositories/../data/media/file165.png"
        },
        {
            "id": 166,
            "path": "/home/misha/webprogbase/labs/lab5/repositories/../data/media/file166.png"
        },
        {
            "id": 167,
            "path": "/home/misha/webprogbase/labs/lab5/repositories/../data/media/file167.png"
        },
        {
            "id": 168,
            "path": "/home/misha/webprogbase/labs/lab5/repositories/../data/media/file168.jpeg"
        },
        {
            "id": 169,
            "path": "/home/misha/webprogbase/labs/lab5/repositories/../data/media/file169.jpeg"
        },
        {
            "id": 170,
            "path": "/home/misha/webprogbase/labs/lab5/repositories/../data/media/file170.jpeg"
        },
        {
            "id": 171,
            "path": "/home/misha/webprogbase/labs/lab5/repositories/../data/media/file171.jpeg"
        },
        {
            "id": 172,
            "path": "/home/misha/webprogbase/labs/lab5/repositories/../data/media/file172.jpeg"
        },
        {
            "id": 173,
            "path": "/home/misha/webprogbase/labs/lab5/repositories/../data/media/file173.jpeg"
        },
        {
            "id": 174,
            "path": "/home/misha/webprogbase/labs/lab5/repositories/../data/media/file174.png"
        },
        {
            "id": 175,
            "path": "/home/misha/webprogbase/labs/lab5/repositories/../data/media/file175.jpeg"
        },
        {
            "id": 176,
            "path": "/home/misha/webprogbase/labs/lab5/repositories/../data/media/file176.jpeg"
        },
        {
            "id": 177,
            "path": "/home/misha/webprogbase/labs/lab5/repositories/../data/media/file177.jpeg"
        },
        {
            "id": 178,
            "path": "/home/misha/webprogbase/labs/lab5/repositories/../data/media/file178.png"
        },
        {
            "id": 179,
            "path": "/home/misha/webprogbase/labs/lab5/repositories/../data/media/file179.jpeg"
        },
        {
            "id": 180,
            "path": "/home/misha/webprogbase/labs/lab5/repositories/../data/media/file180.jpeg"
        },
        {
            "id": 181,
            "path": "/home/misha/webprogbase/labs/lab5/repositories/../data/media/file181.jpeg"
        },
        {
            "id": 182,
            "path": "/home/misha/webprogbase/labs/lab5/repositories/../data/media/file182.jpeg"
        },
        {
            "id": 183,
            "path": "/home/misha/webprogbase/labs/lab5/repositories/../data/media/file183.jpeg"
        },
        {
            "id": 184,
            "path": "/home/misha/webprogbase/labs/lab5/repositories/../data/media/file184.png"
        },
        {
            "id": 185,
            "path": "/home/misha/webprogbase/labs/lab5/repositories/../data/media/file185.png"
        },
        {
            "id": 186,
            "path": "/home/misha/webprogbase/labs/lab5/repositories/../data/media/file186.jpeg"
        },
        {
            "id": 187,
            "path": "/home/misha/webprogbase/labs/lab5/repositories/../data/media/file187.jpeg"
        },
        {
            "id": 188,
            "path": "/home/misha/webprogbase/labs/lab5/repositories/../data/media/file188.jpeg"
        },
        {
            "id": 189,
            "path": "/home/misha/webprogbase/labs/lab5/repositories/../data/media/file189.jpeg"
        },
        {
            "id": 190,
            "path": "/home/misha/webprogbase/labs/lab5/repositories/../data/media/file190.jpeg"
        },
        {
            "id": 191,
            "path": "/home/misha/webprogbase/labs/lab5/repositories/../data/media/file191.jpeg"
        },
        {
            "id": 192,
            "path": "/home/misha/webprogbase/labs/lab5/repositories/../data/media/file192.jpeg"
        },
        {
            "id": 195,
            "path": "/home/misha/webprogbase/labs/lab5/repositories/../data/media/file195.jpeg"
        },
        {
            "id": 196,
            "path": "/home/misha/webprogbase/labs/lab5/repositories/../data/media/file196.jpeg"
        },
        {
            "id": 198,
            "path": "/home/misha/webprogbase/labs/lab5/repositories/../data/media/file198.jpeg"
        },
        {
            "id": 199,
            "path": "/home/misha/webprogbase/labs/lab5/repositories/../data/media/file199.jpeg"
        },
        {
            "id": 200,
            "path": "/home/misha/webprogbase/labs/lab5/repositories/../data/media/file200.jpeg"
        },
        {
            "id": 201,
            "path": "/home/misha/webprogbase/labs/lab5/repositories/../data/media/file201.jpeg"
        },
        {
            "id": 202,
            "path": "/home/misha/webprogbase/labs/lab5/repositories/../data/media/file202.jpeg"
        },
        {
            "id": 203,
            "path": "/home/misha/webprogbase/labs/lab5/repositories/../data/media/file203.png"
        },
        {
            "id": 204,
            "path": "/home/misha/webprogbase/labs/lab5/repositories/../data/media/file204.png"
        },
        {
            "id": 206,
            "path": "/home/misha/webprogbase/labs/lab5/repositories/../data/media/file206.png"
        },
        {
            "id": 208,
            "path": "/home/misha/webprogbase/labs/lab5/repositories/../data/media/file208.jpeg"
        },
        {
            "id": 209,
            "path": "/home/misha/webprogbase/labs/lab5/repositories/../data/media/file209.jpeg"
        },
        {
            "id": 210,
            "path": "/home/misha/webprogbase/labs/lab5/repositories/../data/media/file210.jpeg"
        },
        {
            "id": 211,
            "path": "/home/misha/webprogbase/labs/lab5/repositories/../data/media/file211.jpeg"
        },
        {
            "id": 212,
            "path": "/home/misha/webprogbase/labs/lab5/repositories/../data/media/file212.jpeg"
        },
        {
            "id": 213,
            "path": "/home/misha/webprogbase/labs/lab5/repositories/../data/media/file213.jpeg"
        },
        {
            "id": 214,
            "path": "/home/misha/webprogbase/labs/lab5/repositories/../data/media/file214.jpeg"
        },
        {
            "id": 215,
            "path": "/home/misha/webprogbase/labs/lab5/repositories/../data/media/file215.jpeg"
        },
        {
            "id": 216,
            "path": "/home/misha/webprogbase/labs/lab5/repositories/../data/media/file216.jpeg"
        },
        {
            "id": 217,
            "path": "/home/misha/webprogbase/labs/lab5/repositories/../data/media/file217.jpeg"
        },
        {
            "id": 218,
            "path": "/home/misha/webprogbase/labs/lab5/repositories/../data/media/file218.jpeg"
        },
        {
            "id": 219,
            "path": "/home/misha/webprogbase/labs/lab5/repositories/../data/media/file219.jpeg"
        },
        {
            "id": 220,
            "path": "/home/misha/webprogbase/labs/lab5/repositories/../data/media/file220.jpeg"
        },
        {
            "id": 221,
            "path": "/home/misha/webprogbase/labs/lab5/repositories/../data/media/file221.jpeg"
        },
        {
            "id": 222,
            "path": "/home/misha/webprogbase/labs/lab5/repositories/../data/media/file222.jpeg"
        },
        {
            "id": 223,
            "path": "/home/misha/webprogbase/labs/lab5/repositories/../data/media/file223.jpeg"
        },
        {
            "id": 224,
            "path": "/home/misha/webprogbase/labs/lab5/repositories/../data/media/file224.jpeg"
        },
        {
            "id": 225,
            "path": "/home/misha/webprogbase/labs/lab5/repositories/../data/media/file225.jpeg"
        },
        {
            "id": 226,
            "path": "/home/misha/webprogbase/labs/lab5/repositories/../data/media/file226.jpeg"
        },
        {
            "id": 227,
            "path": "/home/misha/webprogbase/labs/lab5/repositories/../data/media/file227.jpeg"
        },
        {
            "id": 228,
            "path": "/home/misha/webprogbase/labs/lab5/repositories/../data/media/file228.jpeg"
        },
        {
            "id": 229,
            "path": "/home/misha/webprogbase/labs/lab5/repositories/../data/media/file229.jpeg"
        },
        {
            "id": 230,
            "path": "/home/misha/webprogbase/labs/lab5/repositories/../data/media/file230.jpeg"
        },
        {
            "id": 231,
            "path": "/home/misha/webprogbase/labs/lab5/repositories/../data/media/file231.jpeg"
        },
        {
            "id": 232,
            "path": "/home/misha/webprogbase/labs/lab5/repositories/../data/media/file232.jpeg"
        },
        {
            "id": 233,
            "path": "/home/misha/webprogbase/labs/lab5/repositories/../data/media/file233.png"
        },
        {
            "id": 234,
            "path": "/home/misha/webprogbase/labs/lab5/repositories/../data/media/file234.png"
        },
        {
            "id": 235,
            "path": "/home/misha/webprogbase/labs/lab5/repositories/../data/media/file235.png"
        },
        {
            "id": 236,
            "path": "/home/misha/webprogbase/labs/lab5/repositories/../data/media/file236.png"
        },
        {
            "id": 237,
            "path": "/home/misha/webprogbase/labs/lab5/repositories/../data/media/file237.png"
        },
        {
            "id": 238,
            "path": "/home/misha/webprogbase/labs/lab5/repositories/../data/media/file238.png"
        },
        {
            "id": 239,
            "path": "/home/misha/webprogbase/labs/lab5/repositories/../data/media/file239.png"
        },
        {
            "id": 240,
            "path": "/home/misha/webprogbase/labs/lab5/repositories/../data/media/file240.png"
        },
        {
            "id": 242,
            "path": "/home/misha/webprogbase/labs/lab5/repositories/../data/media/file242.png"
        },
        {
            "id": 243,
            "path": "/home/misha/webprogbase/labs/lab5/repositories/../data/media/file243.png"
        }
    ]
}